…
```r
ed_search(query = 'size', which = "grid")
#> # A tibble: 290 x 2
#>                                                                          title
#>                                                                          <chr>
#>  1 COAWST Hindcast:MVCO/CBlast 2007:ripples with SWAN-40m res (00 dir roms) [t
#>  2 COAWST Hindcast:MVCO/CBlast 2007:ripples with SWAN-40m res (00 dir roms) [t
#>  3 COAWST Hindcast:MVCO/CBlast 2007:ripples with SWAN-40m res (00 dir roms) [t
#>  4 COAWST Hindcast:MVCO/CBlast 2007:ripples with SWAN-40m res (00 dir roms) [t
#>  5 COAWST Hindcast:MVCO/CBlast 2007:ripples with SWAN-40m res (00 dir roms) [t
#>  6 ROMS3.0 CBLAST2007 Ripples with SWAN-40m res (his case7 ar0fd 0001) [time][
#>  7 ROMS3.0 CBLAST2007 Ripples with SWAN-40m res (his case7 ar0fd 0001) [time][
#>  8 ROMS3.0 CBLAST2007 Ripples with SWAN-40m res (his case7 ar0fd 0001) [time][
#>  9 ROMS3.0 CBLAST2007 Ripples with SWAN-40m res (his case7 ar0fd 0001) [time][
#> 10 ROMS3.0 CBLAST2007 Ripples with SWAN-40m res (his case7 ar0fd 0001) [time][
#> # ... with 280 more rows, and 1 more variables: dataset_id <chr>
```
…
```r
tabledap('erdCinpKfmBT', 'time>=2007-06-24', 'time<=2007-07-01')
#> <ERDDAP tabledap> erdCinpKfmBT
#>    Path: [/Users/sacmac/Library/Caches/R/rerddap/268b2474e9e613336b900d3289304bb0.csv]
#>    Last updated: [2017-07-11 13:30:37]
#>    File size:    [0.01 mb]
#> # A tibble: 37 x 53
#>                       station         longitude         latitude depth
#>  *                      <chr>             <chr>            <chr> <chr>
#>  1       Anacapa_AdmiralsReef -119.416666666667             34.0  16.0
#>  2   Anacapa_BlackSeaBassReef -119.383333333333             34.0  17.0
#>  3      Anacapa_CathedralCove -119.366666666667             34.0   6.0
#>  4       Anacapa_EastFishCamp -119.383333333333             34.0  11.0
#>  5            Anacapa_Keyhole -119.416666666667             34.0  11.0
#>  6        Anacapa_LandingCove           -119.35 34.0166666666667   5.0
#>  7         Anacapa_Lighthouse           -119.35             34.0   8.0
#>  8   SanClemente_BoyScoutCamp -118.533333333333             33.0  11.0
#>  9       SanClemente_EelPoint -118.533333333333            32.95  10.0
#> 10 SanClemente_HorseBeachCove            -118.4             32.8  13.0
#> # ... with 27 more rows, and 49 more variables: time <chr>,
#> #   Aplysia_californica_Mean_Density <chr>,
#> #   Aplysia_californica_StdDev <dbl>, Aplysia_californica_StdErr <dbl>,
#> #   Crassedoma_giganteum_Mean_Density <chr>,
#> #   Crassedoma_giganteum_StdDev <dbl>, Crassedoma_giganteum_StdErr <dbl>,
#> #   Haliotis_corrugata_Mean_Density <chr>,
#> #   Haliotis_corrugata_StdDev <dbl>, Haliotis_corrugata_StdErr <dbl>,
#> #   Haliotis_fulgens_Mean_Density <chr>, Haliotis_fulgens_StdDev <dbl>,
…
