…
```r
library("rerddap")
```

## Search

First, you likely want to search for data, specify either `griddadp` or `tabledap`


```r
ed_search(query = 'size', which = "table")
#> # A tibble: 41 × 2
#>    title                                                                 datas…¹
#>    <chr>                                                                 <chr>  
#>  1 CCE Prey Size and Hard Part Size Regressions                          mmtdPr…
#>  2 CCE Teleost Prey Size and Hard Part Size Measurements                 mmtdTe…
#>  3 CalCOFI Larvae Sizes                                                  erdCal…
#>  4 Seabird Prey Size                                                     cciea_…
#>  5 CCE Non-Teleost Prey Size and Hard Part Size Measurements             mmtdNo…
#>  6 Channel Islands, Kelp Forest Monitoring, Size and Frequency, Natural… erdCin…
#>  7 File Names from the AWS S3 noaa-goes16 Bucket                         awsS3N…
#>  8 File Names from the AWS S3 noaa-goes17 Bucket                         awsS3N…
#>  9 PacIOOS Beach Camera 001: Waikiki, Oahu, Hawaii                       BEACHC…
#> 10 PacIOOS Beach Camera 003: Waimea Bay, Oahu, Hawaii                    BEACHC…
#> # … with 31 more rows, and abbreviated variable name ¹​dataset_id
```


```r
ed_search(query = 'size', which = "grid")
#> # A tibble: 54 × 2
#>    title                                                                 datas…¹
#>    <chr>                                                                 <chr>  
#>  1 Audio data from a local source.                                       testGr…
#>  2 Main Hawaiian Islands Multibeam Bathymetry Synthesis: 50-m Bathymetry hmrg_b…
#>  3 Main Hawaiian Islands Multibeam Bathymetry Synthesis: 50-m Bathymetr… hmrg_b…
#>  4 Coastal Upwelling Transport Index (CUTI), Daily                       erdCUT…
#>  5 SST smoothed frontal gradients                                        FRD_SS…
#>  6 Coastal Upwelling Transport Index (CUTI), Monthly                     erdCUT…
#>  7 SST smoothed frontal gradients, Lon0360                               FRD_SS…
#>  8 Biologically Effective Upwelling Transport Index (BEUTI), Daily       erdBEU…
#>  9 Biologically Effective Upwelling Transport Index (BEUTI), Monthly     erdBEU…
#> 10 monthly mean psi from the NCEP Reanalysis (psi.mon.ltm), 0001         noaa_p…
#> # … with 44 more rows, and abbreviated variable name ¹​dataset_id
```
…
```r
(res <- griddap(out,
  time = c('2015-01-01','2015-01-03'),
  latitude = c(14, 15),
  longitude = c(125, 126)
))
#> <ERDDAP griddap> erdMBchla1day
#>    Path: [~/Library/Caches/R/rerddap/4d844aa48552049c3717ac94ced5f9b8.nc]
#>    Last updated: [2022-09-30 09:34:02]
#>    File size:    [0.03 mb]
#>    Dimensions (dims/vars):   [4 X 1]
#>    Dim names: time, altitude, latitude, longitude
#>    Variable names: Chlorophyll Concentration in Sea Water
#>    data.frame (rows/columns):   [5043 X 5]
#> # A tibble: 5,043 × 5
#>    longitude latitude altitude time                 chlorophyll
#>        <dbl>    <dbl>    <dbl> <chr>                      <dbl>
#>  1      125        14        0 2015-01-01T12:00:00Z          NA
#>  2      125.       14        0 2015-01-01T12:00:00Z          NA
#>  3      125.       14        0 2015-01-01T12:00:00Z          NA
#>  4      125.       14        0 2015-01-01T12:00:00Z          NA
#>  5      125.       14        0 2015-01-01T12:00:00Z          NA
#>  6      125.       14        0 2015-01-01T12:00:00Z          NA
#>  7      125.       14        0 2015-01-01T12:00:00Z          NA
#>  8      125.       14        0 2015-01-01T12:00:00Z          NA
#>  9      125.       14        0 2015-01-01T12:00:00Z          NA
#> 10      125.       14        0 2015-01-01T12:00:00Z          NA
#> # … with 5,033 more rows
```
…
```r
(dat <- tabledap('erdCalCOFIlrvsiz', fields=c('latitude','longitude','larvae_size',
  'scientific_name'), 'time>=2011-01-01', 'time<=2011-12-31'))
#> <ERDDAP tabledap> erdCalCOFIlrvsiz
#>    Path: [~/Library/Caches/R/rerddap/db7389db5b5b0ed9c426d5c13bc43d18.csv]
#>    Last updated: [2022-09-30 09:34:05]
#>    File size:    [0.05 mb]
#> # A tibble: 1,304 × 4
#>    latitude  longitude  larvae_size scientific_name     
#>    <chr>     <chr>      <chr>       <chr>               
#>  1 32.956665 -117.305   4.5         Engraulis mordax    
#>  2 32.91     -117.4     5.0         Merluccius productus
#>  3 32.511665 -118.21167 2.0         Merluccius productus
#>  4 32.511665 -118.21167 3.0         Merluccius productus
#>  5 32.511665 -118.21167 5.5         Merluccius productus
#>  6 32.511665 -118.21167 6.0         Merluccius productus
#>  7 32.511665 -118.21167 2.8         Merluccius productus
#>  8 32.511665 -118.21167 3.0         Sardinops sagax     
#>  9 32.511665 -118.21167 5.0         Sardinops sagax     
#> 10 32.511665 -118.21167 2.5         Engraulis mordax    
#> # … with 1,294 more rows
```
…
