…
```r
ed_search(query = 'size', which = "grid")
#> # A tibble: 347 x 2
#>                                                                          title
#>                                                                          <chr>
#>  1 ROMS3.0 CBLAST2007 Ripples with SWAN-40m res (his case7 ar0fd 0001) [time][
#>  2 ROMS3.0 CBLAST2007 Ripples with SWAN-40m res (his case7 ar0fd 0001) [time][
#>  3 ROMS3.0 CBLAST2007 Ripples with SWAN-40m res (his case7 ar0fd 0001) [time][
#>  4 ROMS3.0 CBLAST2007 Ripples with SWAN-40m res (his case7 ar0fd 0001) [time][
#>  5 ROMS3.0 CBLAST2007 Ripples with SWAN-40m res (his case7 ar0fd 0001) [time][
#>  6 ROMS3.0 CBLAST2007 Ripples with SWAN-40m res (his case7 ar0fd 0002) [time][
#>  7 ROMS3.0 CBLAST2007 Ripples with SWAN-40m res (his case7 ar0fd 0002) [time][
#>  8 ROMS3.0 CBLAST2007 Ripples with SWAN-40m res (his case7 ar0fd 0002) [time][
#>  9 ROMS3.0 CBLAST2007 Ripples with SWAN-40m res (his case7 ar0fd 0002) [time][
#> 10 ROMS3.0 CBLAST2007 Ripples with SWAN-40m res (his case7 ar0fd 0002) [time][
#> # ... with 337 more rows, and 1 more variables: dataset_id <chr>
```
…
```r
(dat <- tabledap('erdCalCOFIlrvsiz', fields=c('latitude','longitude','larvae_size',
  'scientific_name'), 'time>=2011-01-01', 'time<=2011-12-31'))
#> <ERDDAP tabledap> erdCalCOFIlrvsiz
#>    Path: [/Users/sacmac/Library/Caches/R/rerddap/db7389db5b5b0ed9c426d5c13bc43d18.csv]
#>    Last updated: [2017-05-11 09:04:58]
#>    File size:    [0.05 mb]
#> # A tibble: 1,217 x 4
#>     latitude longitude larvae_size        scientific_name
#>  *     <chr>     <chr>       <chr>                  <chr>
#>  1 32.956665  -117.305         4.5       Engraulis mordax
#>  2 32.956665  -117.305         2.9 Doryteuthis opalescens
#>  3 32.956665  -117.305         2.7 Doryteuthis opalescens
#>  4 32.956665  -117.305         3.3 Doryteuthis opalescens
#>  5 32.956665  -117.305         3.0 Doryteuthis opalescens
#>  6 32.956665  -117.305         3.7 Doryteuthis opalescens
#>  7 32.956665  -117.305         3.4 Doryteuthis opalescens
#>  8 32.956665  -117.305         3.2 Doryteuthis opalescens
#>  9 32.956665  -117.305         2.8 Doryteuthis opalescens
#> 10 32.956665  -117.305         3.6 Doryteuthis opalescens
#> # ... with 1,207 more rows
```
…
